{
  "items": [
    {
      "external_urls": {
        "spotify": "https://open.spotify.com/artist/7Ln80lUS6He07XvHI8qqHH"
      },
      "followers": {
        "href": null,
        "total": 16850323
      },
      "genres": [
        "garage rock",
        "modern rock",
        "permanent wave",
        "rock",
        "sheffield indie"
      ],
      "href": "https://api.spotify.com/v1/artists/7Ln80lUS6He07XvHI8qqHH",
      "id": "7Ln80lUS6He07XvHI8qqHH",
      "images": [
        {
          "height": 640,
          "url": "https://i.scdn.co/image/ab6761610000e5eb7da39dea0a72f581535fb11f",
          "width": 640
        },
        {
          "height": 320,
          "url": "https://i.scdn.co/image/ab676161000051747da39dea0a72f581535fb11f",
          "width": 320
        },
        {
          "height": 160,
          "url": "https://i.scdn.co/image/ab6761610000f1787da39dea0a72f581535fb11f",
          "width": 160
        }
      ],
      "name": "Arctic Monkeys",
      "popularity": 87,
      "type": "artist",
      "uri": "spotify:artist:7Ln80lUS6He07XvHI8qqHH"
    }
  ],
  "total": 50,
  "limit": 1,
  "offset": 0,
  "href": "https://api.spotify.com/v1/me/top/artists?limit=1&offset=0",
  "previous": null,
  "next": "https://api.spotify.com/v1/me/top/artists?limit=1&offset=1"
}